Quick Start-

Requirements-

1. Reactjs 16.0.0 (and it's requirements such as javascript Es6) => 
2. Node.js to install various packages (node.js v16.0.0)  => https://nodejs.org/en/ (Download it from here).

------------------------------------------------
Steps-

1. clone project => git clone https://gitlab.com/piyushgit/manage-user-web-app.git
2. open CMD or powershell and go to that location.
3. Go to "src/view" directory.
4. For including  all package in view directory run command  " npm install ".
6. Starting the project in your local machine run command " npm start -s ".
7. Open browser go to the url " localhost:3000 ". 

-------------------------------------------------
Packages Used -
 
